[gd_scene load_steps=4 format=2]

[ext_resource path="res://assets/models/RockTall3.obj" type="ArrayMesh" id=1]
[ext_resource path="res://assets/materials/rocks.tres" type="Material" id=2]

[sub_resource type="ConvexPolygonShape" id=1]
points = PoolVector3Array( -1.35335, 7.26514, -1.36377, -1.43402, -0.413355, -1.19028, 1.97608, 7.71368, -1.02232, 1.74421, -0.159938, -0.909464, 2.50519, 6.7882, 0.435794, 2.28552, -0.282234, 0.262209, 1.57783, 6.594, 1.43505, 1.32326, 0.004147, 1.12918, 1.57783, 6.594, 1.43505, 1.32326, 0.004147, 1.12918, -1.8665, 5.89536, 0.988378, -1.68772, -0.507887, 0.850331, -2.67946, 6.98361, -0.183686, -2.49609, -0.507887, -0.211868, -1.35335, 7.26514, -1.36377, -1.43402, -0.413355, -1.19028, 1.32326, 0.004147, 1.12918, 2.28552, -0.282234, 0.262209, -0.01785, -0.752983, 0.033839, 1.57783, 6.594, 1.43505, -1.8665, 5.89536, 0.988378, 1.42804, 14.1287, 1.13658, -1.21967, 11.7731, 1.30814, 2.50519, 6.7882, 0.435794, 1.57783, 6.594, 1.43505, 2.32284, 14.8942, 0.28844, 1.42804, 14.1287, 1.13658, 2.28552, -0.282234, 0.262209, 1.74421, -0.159938, -0.909464, -0.01785, -0.752983, 0.033839, -1.8665, 5.89536, 0.988378, -1.68772, -0.507887, 0.850331, -2.67946, 6.98361, -0.183686, -2.49609, -0.507887, -0.211868, 1.97608, 7.71368, -1.02232, 1.74421, -0.159938, -0.909464, 2.50519, 6.7882, 0.435794, 2.28552, -0.282234, 0.262209, 1.72934, 13.3669, -0.510423, 2.32284, 14.8942, 0.28844, -0.904814, 15.063, -1.42816, -2.1554, 14.6157, -0.188154, 1.42804, 14.1287, 1.13658, -1.21967, 11.7731, 1.30814, -2.1554, 14.6157, -0.188154, -2.67946, 6.98361, -0.183686, -0.904814, 15.063, -1.42816, -1.35335, 7.26514, -1.36377, 1.97608, 7.71368, -1.02232, 2.50519, 6.7882, 0.435794, 1.72934, 13.3669, -0.510423, 2.32284, 14.8942, 0.28844, -1.35335, 7.26514, -1.36377, 1.97608, 7.71368, -1.02232, -0.904814, 15.063, -1.42816, 1.72934, 13.3669, -0.510423, 1.42804, 14.1287, 1.13658, -2.1554, 14.6157, -0.188154, 2.32284, 14.8942, 0.28844, -2.1554, 14.6157, -0.188154, -1.21967, 11.7731, 1.30814, -2.67946, 6.98361, -0.183686, -1.8665, 5.89536, 0.988378, -2.1554, 14.6157, -0.188154, -0.904814, 15.063, -1.42816, 2.32284, 14.8942, 0.28844, -2.49609, -0.507887, -0.211868, -0.01785, -0.752983, 0.033839, -1.43402, -0.413355, -1.19028, -1.68772, -0.507887, 0.850331, -0.01785, -0.752983, 0.033839, -2.49609, -0.507887, -0.211868, 1.32326, 0.004147, 1.12918, -0.01785, -0.752983, 0.033839, -1.68772, -0.507887, 0.850331, 1.74421, -0.159938, -0.909464, -1.43402, -0.413355, -1.19028, -0.01785, -0.752983, 0.033839 )

[node name="RockTall3" type="MeshInstance"]
mesh = ExtResource( 1 )
material/0 = ExtResource( 2 )

[node name="StaticBody" type="StaticBody" parent="."]

[node name="CollisionShape" type="CollisionShape" parent="StaticBody"]
shape = SubResource( 1 )
