[gd_scene load_steps=4 format=2]

[ext_resource path="res://assets/models/RockSmall2.obj" type="ArrayMesh" id=1]
[ext_resource path="res://assets/materials/rocks.tres" type="Material" id=2]

[sub_resource type="ConvexPolygonShape" id=1]
points = PoolVector3Array( 0.184156, -0.024431, -0.368449, 0.646556, 0.001669, -0.233512, 0.385197, 0.010121, -0.778662, 0.072129, -0.028646, -0.571316, 0.357513, 1.14542, -0.523077, 0.015743, 1.25713, -0.132635, 0.018378, 1.17432, -0.656461, 0.340827, 0.002101, -0.192383, -0.010309, -0.025987, -0.164844, 0.222421, 0.057127, 0.275878, 0.505822, 0.058123, 0.059498, 0.888784, 0.051481, 0.464747, 0.48121, 1.12792, 0.438228, -0.099258, 1.18732, 0.688945, 0.276554, 1.21221, 0.183676, 0.069412, 0.030148, 0.468865, -0.250117, -0.027376, 0.369877, -0.180117, -0.049677, 0.594649, 0.247702, 0.985198, 1.16308, 0.579127, 1.00595, 0.838573, 0.657768, 0.930995, 1.18329, 0.713501, 0.988434, 0.67556, 0.178963, -0.021048, 1.03762, -0.075385, -0.026655, 0.810971, 0.218542, 0.013973, 1.43035, -0.219131, 0.002214, 1.07737, 0.910101, 0.035703, 1.30296, 0.71241, -0.009429, 0.85768, 0.410638, -0.019679, 1.26989, 0.460697, 0.068827, 1.71341, 0.546676, 0.576095, 1.7675, 0.590436, 0.475824, 1.7616, 0.22387, 0.542613, 1.85525, 0.06203, 0.320357, 1.86143, -0.206379, 0.49236, 1.86076, 0.366454, 0.328477, 1.82341, -0.191438, 0.118229, 1.75233, -0.472375, 0.373066, 1.80005, -0.586534, 0.461684, 1.77242, -0.803144, 0.356931, 1.65818, 0.181536, 0.078766, 1.76032, 0.460697, 0.068827, 1.71341, -0.550983, 0.118206, 1.66819, 1.37129, 0.716643, 0.289164, 1.4312, 0.60706, 0.037765, 1.41233, 0.576804, 0.206742, 0.203374, 0.750087, 1.56529, 0.546676, 0.576095, 1.7675, 0.22387, 0.542613, 1.85525, 0.546676, 0.576095, 1.7675, 0.75568, 0.572576, 1.59681, -0.206379, 0.49236, 1.86076, -0.957364, 0.628238, 1.49714, -0.936916, 0.736574, 1.31141, -0.96432, 0.527037, 1.59055, -0.957364, 0.628238, 1.49714, -0.586534, 0.461684, 1.77242, 1.0472, 0.256301, 1.30374, 0.656431, 0.263726, 1.63535, -0.802225, 0.132833, 1.55672, -0.96432, 0.527037, 1.59055, -0.96432, 0.527037, 1.59055, -0.550983, 0.118206, 1.66819, -0.366963, 0.050559, 1.47176, -0.802225, 0.132833, 1.55672, -0.108906, 0.934757, 1.27156, -1.10986, 0.628398, 1.25263, -0.957364, 0.628238, 1.49714, -0.96432, 0.527037, 1.59055, -1.10986, 0.628398, 1.25263, 1.07571, 0.409497, 1.29275, 1.0928, 0.223505, 1.06887, 1.07571, 0.409497, 1.29275, 1.01629, 0.647037, 1.2571, -1.17695, 0.144937, 1.19196, -1.10986, 0.628398, 1.25263, -0.96432, 0.527037, 1.59055, -0.785574, 0.066931, 1.16491, -0.570096, 0.044721, 1.1104, 1.03115, 0.907467, 0.876451, -1.2053, 0.575801, 0.953922, 1.0928, 0.223505, 1.06887, 1.07571, 0.409497, 1.29275, -1.16263, 0.100046, 1.18171, -1.2943, 0.219588, 0.734037, 1.03115, 0.907467, 0.876451, 1.02088, 0.996753, 0.526875, -1.22411, 0.620292, 0.182602, -0.681429, 0.901883, 1.13692, -1.2053, 0.575801, 0.953922, 1.20499, 0.747502, 0.79091, 1.23925, 0.319567, 0.66394, 1.01629, 0.647037, 1.2571, 0.225773, -0.058064, 0.781654, 0.003021, -0.022711, 0.668127, -1.34214, 0.261743, 0.2666, -1.2053, 0.575801, 0.953922, -0.831395, -0.000784, 0.597583, -1.16446, 0.015297, 0.349369, -1.16263, 0.100046, 1.18171, -1.2943, 0.219588, 0.734037, -1.16263, 0.100046, 1.18171, -1.16446, 0.015297, 0.349369, -1.34214, 0.261743, 0.2666, -0.417728, -0.055108, 0.654238, -0.605913, -0.028462, 0.422328, -0.347456, -0.037571, 0.869059, -0.543462, 1.17544, 0.218448, -0.383686, 1.22716, 0.282401, -0.587821, 1.03332, 0.754471, -1.07521, 0.722283, 0.093859, -0.892112, -0.034953, 0.340377, -0.77542, -0.02898, 0.09141, -0.604264, -0.045465, 0.115504, -0.373226, 1.23548, -0.267689, 0.438175, 1.18844, -0.088013, -0.80731, 0.935109, -0.418753, -0.681429, 0.901883, 1.13692, -1.11918, 0.014536, -0.024885, -1.36281, 0.328589, -0.078896, -1.11918, 0.014536, -0.024885, -0.136737, -0.016208, 0.210493, -0.290643, -0.034552, -0.167707, 1.41233, 0.576804, 0.206742, 1.20499, 0.747502, 0.79091, 1.21815, 0.897923, 0.183702, 0.967033, 0.968353, -0.334757, 1.12321, 0.963774, 0.356534, -0.865201, 0.867927, -0.254892, -0.920897, 0.727211, -0.356416, -1.26335, 0.389992, -0.512743, -0.979449, -0.000495, -0.456504, 1.20499, 0.747502, 0.79091, 1.27948, 0.088024, -0.076245, 1.33214, 0.501401, -0.247444, 1.38251, 0.301879, -0.098786, 1.2493, 0.642775, -0.338934, 1.38251, 0.301879, -0.098786, 1.38251, 0.301879, -0.098786, -0.16758, 1.16287, -0.714086, -0.861555, 0.782425, -0.724428, -0.626661, 0.95326, -0.735553, -1.16273, 0.500115, -0.810843, -1.27653, 0.544407, -0.007034, -1.26335, 0.389992, -0.512743, 1.14909, 0.540706, -0.620928, 1.03115, 0.907467, 0.876451, 1.03115, 0.907467, 0.876451, -0.074709, 0.994398, -1.16489, -1.06613, 0.499813, -0.980944, -0.72841, 0.034086, -1.06646, -1.16273, 0.500115, -0.810843, 1.14394, 0.184097, -0.624726, 0.608992, 0.771883, -1.0436, 0.764256, 0.495394, -1.14321, -0.81188, 0.724572, -0.961967, 0.53638, 0.537074, -1.37111, 0.784342, 0.274922, -1.12858, -0.905747, 0.414247, -1.15995, 0.526002, 0.049196, -1.20089, 0.780684, 0.044563, -0.915031, 0.780684, 0.044563, -0.915031, 0.526002, 0.049196, -1.20089, 1.11831, -0.018678, -0.394347, 1.05854, 0.006081, -0.571585, 0.346374, 1.00492, -0.919132, 0.061874, 0.912066, -1.37555, 0.047695, 0.644958, -1.69164, 0.31556, 0.464055, -1.66275, -0.231284, 0.810399, -1.3573, 0.061874, 0.912066, -1.37555, -0.671956, 0.378942, -1.42326, -0.368674, 0.59357, -1.49973, -0.905747, 0.414247, -1.15995, 1.27948, 0.088024, -0.076245, 1.18536, 0.000152, -0.077942, 1.12628, 0.046271, 0.561557, 0.524293, 0.259065, -1.39825, -0.551182, 0.07686, -1.34801, -0.671956, 0.378942, -1.42326, 0.080403, 0.060288, -1.44902, -0.29772, 0.041765, -1.24209, -0.053677, -0.008993, -0.666186, -0.085232, 0.096839, -1.58547, -0.416807, 0.048758, -1.40848, 1.12628, 0.046271, 0.561557, 0.047695, 0.644958, -1.69164, 0.128845, 0.539115, -1.7457, -0.33309, 0.398712, -1.67379, 0.373176, 0.327092, -1.59194, 0.31556, 0.464055, -1.66275, 0.214337, 0.403189, -1.72409, 0.373176, 0.327092, -1.59194, 0.373176, 0.327092, -1.59194, 0.241576, 0.107537, -1.48133, 0.373176, 0.327092, -1.59194, 0.526002, 0.049196, -1.20089, -0.085232, 0.096839, -1.58547, -0.085232, 0.096839, -1.58547, -0.416807, 0.048758, -1.40848, -0.203599, 0.144918, -1.63393, -0.416807, 0.048758, -1.40848, 0.128845, 0.539115, -1.7457, -0.069327, 0.351061, -1.77308, 0.31556, 0.464055, -1.66275, 0.128845, 0.539115, -1.7457, -0.069327, 0.351061, -1.77308, -0.069327, 0.351061, -1.77308, -0.201745, -0.01175, -0.368222, -0.270404, -0.015054, 0.237817, 0.732748, 0.029675, 0.582817, -0.681429, 0.901883, 1.13692, 0.546676, 0.576095, 1.7675, 1.01629, 0.647037, 1.2571, -1.16263, 0.100046, 1.18171, -1.17695, 0.144937, 1.19196, 0.181536, 0.078766, 1.76032, -0.191438, 0.118229, 1.75233, -0.681429, 0.901883, 1.13692, 1.01629, 0.647037, 1.2571, 1.0723, 0.057766, 1.06645, 0.910101, 0.035703, 1.30296, -0.681429, 0.901883, 1.13692, 1.0723, 0.057766, 1.06645, 1.12628, 0.046271, 0.561557, 1.12628, 0.046271, 0.561557, -1.36281, 0.328589, -0.078896, -0.730719, -0.018799, -0.609656, -0.979449, -0.000495, -0.456504, 1.05854, 0.006081, -0.571585, 1.03115, 0.907467, 0.876451, 1.01629, 0.647037, 1.2571, 0.061874, 0.912066, -1.37555, -1.06613, 0.499813, -0.980944, -0.72841, 0.034086, -1.06646, 1.38251, 0.301879, -0.098786, -0.72841, 0.034086, -1.06646, 1.11831, -0.018678, -0.394347, 1.18536, 0.000152, -0.077942, -0.33309, 0.398712, -1.67379 )

[node name="RockSmall2" type="MeshInstance"]
mesh = ExtResource( 1 )
material/0 = ExtResource( 2 )

[node name="StaticBody" type="StaticBody" parent="."]

[node name="CollisionShape" type="CollisionShape" parent="StaticBody"]
shape = SubResource( 1 )
