[gd_scene load_steps=4 format=2]

[ext_resource path="res://assets/models/RockMedium2.obj" type="ArrayMesh" id=1]
[ext_resource path="res://assets/materials/rocks.tres" type="Material" id=2]

[sub_resource type="ConvexPolygonShape" id=1]
points = PoolVector3Array( 0.612932, 0.108389, -1.83769, 0.808212, -0.019124, -1.91384, 0.887389, 0.15973, -1.96382, 0.990992, 0.45014, -1.92098, 0.432288, 0.460225, -1.88136, 0.887389, 0.15973, -1.96382, -0.570118, 0.022842, -1.58906, -0.819538, 0.222753, -1.58772, -1.03205, 0.139337, -1.47328, -0.6499, -0.287275, -1.30402, -0.404915, -0.014975, -1.58054, -0.385162, -0.248676, -1.42742, -0.176786, -0.095681, -1.4809, -0.404915, -0.014975, -1.58054, -0.500262, 0.18439, -1.68686, 0.044913, 0.186992, -1.79861, 0.044913, 0.186992, -1.79861, 0.680177, -0.12231, -1.48468, 0.612932, 0.108389, -1.83769, 0.887389, 0.15973, -1.96382, 0.808212, -0.019124, -1.91384, 0.680177, -0.12231, -1.48468, 0.950783, -0.118956, -1.62593, 0.808212, -0.019124, -1.91384, 0.887389, 0.15973, -1.96382, 0.808212, -0.019124, -1.91384, 0.950783, -0.118956, -1.62593, 0.887389, 0.15973, -1.96382, 1.21879, 0.14162, -1.25352, 1.12698, 0.609897, -1.81199, 0.950783, -0.118956, -1.62593, -1.21789, 0.234734, -1.46734, -0.773319, 0.638034, -1.56813, -1.14261, 0.869622, -1.51154, -0.503131, 0.492362, -1.67051, -0.562885, 0.900887, -1.76503, -0.163743, 0.519635, -1.73877, -0.286105, 0.901393, -1.80282, -0.021268, 0.770503, -1.81873, 0.044913, 0.186992, -1.79861, 0.146239, 0.570206, -1.82016, 0.411944, 0.774001, -1.87238, 0.75649, 0.825813, -1.85405, 0.887389, 0.15973, -1.96382, 1.12698, 0.609897, -1.81199, 0.990992, 0.45014, -1.92098, -0.776695, 0.920808, -1.63778, -0.476582, 1.07335, -1.72793, -1.01074, 1.3421, -1.50518, -1.14261, 0.869622, -1.51154, -0.776695, 0.920808, -1.63778, -0.562885, 0.900887, -1.76503, -0.562885, 0.900887, -1.76503, -0.100377, 1.1022, -1.76943, -0.562885, 0.900887, -1.76503, 0.213001, 1.28129, -1.81196, 0.558375, 1.18493, -1.77575, 0.94112, 1.20075, -1.68141, 1.13017, 0.99162, -1.64626, 0.994227, 0.877029, -1.78394, 1.40975, 0.573613, -1.34271, 1.60563, 0.986065, -1.37222, 1.68537, 1.12389, -1.56065, 1.41828, 0.928183, -1.65545, 1.2812, 0.832168, -1.76256, 1.60563, 0.986065, -1.37222, 1.41828, 0.928183, -1.65545, 1.12698, 0.609897, -1.81199, 1.2812, 0.832168, -1.76256, 1.12698, 0.609897, -1.81199, 0.994227, 0.877029, -1.78394, 0.990992, 0.45014, -1.92098, 1.12698, 0.609897, -1.81199, 1.68537, 1.12389, -1.56065, -0.656073, 1.50035, -1.52049, -1.0354, 1.55285, -1.4307, -0.687621, 1.82849, -1.49128, -0.263334, 1.51656, -1.62634, -0.082856, 1.65499, -1.56548, 0.484242, 1.49668, -1.61581, 0.484242, 1.49668, -1.61581, 1.06581, 1.45184, -1.59806, 0.599845, 1.60998, -1.62283, 0.484242, 1.49668, -1.61581, 2.03517, 1.33862, -1.5355, 1.44783, 1.50395, -1.59442, 2.03517, 1.33862, -1.5355, 2.03462, 1.56474, -1.56439, 2.40464, 1.50054, -1.54639, -0.912866, 1.87428, -1.44484, -0.439567, 1.86706, -1.4707, -0.082856, 1.65499, -1.56548, -0.098944, 2.00201, -1.6394, -0.082856, 1.65499, -1.56548, -0.082856, 1.65499, -1.56548, -0.098944, 2.00201, -1.6394, -0.439567, 1.86706, -1.4707, 0.599845, 1.60998, -1.62283, -0.082856, 1.65499, -1.56548, 0.484242, 1.49668, -1.61581, 0.571062, 1.83254, -1.67838, 1.05714, 1.81936, -1.62981, 0.531881, 2.12789, -1.73467, 0.901736, 2.18136, -1.64872, 1.51344, 1.99546, -1.70821, 2.15201, 1.85332, -1.44449, 1.62088, 2.01035, -1.68496, 2.73853, 1.56254, -1.41578, -0.327623, 2.18303, -1.40072, -0.10603, 2.25849, -1.62027, -0.301254, 2.40366, -1.32715, -0.439567, 1.86706, -1.4707, -0.098944, 2.00201, -1.6394, -0.098944, 2.00201, -1.6394, -0.098944, 2.00201, -1.6394, 0.126292, 2.41041, -1.66585, -0.098944, 2.00201, -1.6394, 0.350811, 2.69347, -1.7127, 1.25621, 2.26483, -1.61299, 1.05588, 2.52453, -1.62663, 1.5051, 2.62351, -1.63359, 1.5051, 2.62351, -1.63359, 1.65886, 2.221, -1.61936, 2.01368, 2.6372, -1.51223, 2.43751, 2.24246, -1.4067, 2.32183, 2.39504, -1.40674, 0.029859, 2.76886, -1.53232, 0.176482, 2.86153, -1.61468, 0.431708, 2.91696, -1.49987, 0.176482, 2.86153, -1.61468, 0.350811, 2.69347, -1.7127, 0.764161, 2.58316, -1.69681, 0.764161, 2.58316, -1.69681, 0.350811, 2.69347, -1.7127, 0.531881, 2.12789, -1.73467, 0.733403, 3.0669, -1.42716, 0.764161, 2.58316, -1.69681, 1.21906, 2.83523, -1.43407, 0.764161, 2.58316, -1.69681, 1.5051, 2.62351, -1.63359, 1.65823, 2.86798, -1.46169, 1.5051, 2.62351, -1.63359, 1.05588, 2.52453, -1.62663, 1.65823, 2.86798, -1.46169, 1.91165, 2.97672, -1.33052, 0.006517, 2.99473, -1.36956, 0.215452, 3.14445, -1.43431, 0.215452, 3.14445, -1.43431, 0.431708, 2.91696, -1.49987, -1.11385, -0.244014, -1.2296, -0.940267, -0.208822, -1.3017, -1.39451, -0.207, -1.21448, -0.6499, -0.287275, -1.30402, -0.385162, -0.248676, -1.42742, -0.6499, -0.287275, -1.30402, -0.392766, -0.28569, -1.12104, -0.385162, -0.248676, -1.42742, -0.404915, -0.014975, -1.58054, -0.6499, -0.287275, -1.30402, 0.023032, -0.231284, -1.21148, 0.305396, -0.311484, -0.80487, -0.176786, -0.095681, -1.4809, -0.385162, -0.248676, -1.42742, 0.49412, -0.233438, -1.12014, 0.680177, -0.12231, -1.48468, 1.05824, -0.225615, -0.808857, 0.983739, -0.215338, -1.19014, 0.983739, -0.215338, -1.19014, -1.57063, 0.380925, -1.20479, -1.68849, 0.141363, -1.19404, -1.58354, 0.221156, -1.29446, -1.56563, -0.177766, -0.920639, -1.39451, -0.207, -1.21448, -1.68849, 0.141363, -1.19404, -1.39451, -0.207, -1.21448, -1.58354, 0.221156, -1.29446, -1.68849, 0.141363, -1.19404, -1.21789, 0.234734, -1.46734, -1.39451, -0.207, -1.21448, -1.09559, -0.06305, -1.30074, -0.940267, -0.208822, -1.3017, -0.940267, -0.208822, -1.3017, -0.6499, -0.287275, -1.30402, -1.09559, -0.06305, -1.30074, 1.19252, -0.077977, -1.01742, 1.55463, 0.177553, -1.01981, 0.983739, -0.215338, -1.19014, -1.14261, 0.869622, -1.51154, -1.21789, 0.234734, -1.46734, -1.14261, 0.869622, -1.51154, -1.58354, 0.221156, -1.29446, 1.58737, 0.634901, -1.2294, 1.81691, 0.313251, -1.04228, 1.66076, 0.828743, -1.21889, 2.14503, 0.628611, -0.995737, -1.57063, 0.380925, -1.20479, -1.71606, 0.80948, -1.10205, -1.54025, 1.23679, -1.20242, 1.89919, 0.990795, -1.20249, 2.5775, 1.00977, -1.02092, 2.22728, 1.03667, -1.14236, 2.44114, 1.26981, -1.23324, -1.42208, 1.77153, -1.04438, 2.03517, 1.33862, -1.5355, 2.5775, 1.00977, -1.02092, 2.96495, 1.44941, -1.12281, 2.44114, 1.26981, -1.23324, 2.40464, 1.50054, -1.54639, 2.73853, 1.56254, -1.41578, 2.40464, 1.50054, -1.54639, 2.96495, 1.44941, -1.12281, 2.03517, 1.33862, -1.5355, 3.228, 1.38837, -0.930988, 3.06222, 1.60234, -1.11451, 2.96495, 1.44941, -1.12281, 3.228, 1.38837, -0.930988, 2.73853, 1.56254, -1.41578, -1.23529, 1.87397, -1.22336, -1.5385, 1.86591, -0.799907, -1.33981, 1.99201, -0.972698, -1.23529, 1.87397, -1.22336, -1.01646, 1.92252, -1.26439, -0.975909, 2.21168, -1.02684, -0.912866, 1.87428, -1.44484, -0.912866, 1.87428, -1.44484, 2.68684, 2.02375, -1.40674, 3.25299, 1.85868, -0.830781, 3.01835, 1.94378, -1.0966, 3.06222, 1.60234, -1.11451, 2.83079, 2.00361, -1.34934, 2.73853, 1.56254, -1.41578, 2.73853, 1.56254, -1.41578, 2.83079, 2.00361, -1.34934, -0.975909, 2.21168, -1.02684, -0.616048, 2.37164, -1.24954, -0.975909, 2.21168, -1.02684, -0.680034, 2.1424, -1.33703, -0.93373, 2.42213, -0.990625, -0.809198, 2.54955, -0.99489, -1.01646, 1.92252, -1.26439, -0.912866, 1.87428, -1.44484, -0.680034, 2.1424, -1.33703, -0.912866, 1.87428, -1.44484, 2.79771, 2.34068, -1.13125, 2.43751, 2.24246, -1.4067, 2.79771, 2.34068, -1.13125, -0.465065, 2.72916, -1.00552, -0.535236, 2.58189, -1.05485, -0.223185, 2.62474, -1.21269, -0.382196, 2.90425, -0.842601, -0.108171, 2.84012, -1.19126, 2.31142, 2.62726, -1.25884, 2.17087, 2.95819, -0.96467, 1.91165, 2.97672, -1.33052, 2.55771, 2.69243, -1.04453, 2.4571, 2.91019, -0.869788, -0.128991, 3.04167, -1.02078, 0.061398, 3.23358, -1.30936, 0.161473, 3.37216, -1.1245, 0.061398, 3.23358, -1.30936, 0.061398, 3.23358, -1.30936, 0.215452, 3.14445, -1.43431, 0.343865, 3.46367, -1.25642, 0.215452, 3.14445, -1.43431, 0.061398, 3.23358, -1.30936, 0.006517, 2.99473, -1.36956, 0.215452, 3.14445, -1.43431, 1.43002, 3.32942, -1.14643, 0.854934, 3.49387, -1.24822, 1.79473, 3.22064, -1.24791, 1.79473, 3.22064, -1.24791, 1.65823, 2.86798, -1.46169, 1.91165, 2.97672, -1.33052, 2.07709, 3.17558, -0.782268, 1.79473, 3.22064, -1.24791, 1.91165, 2.97672, -1.33052, 0.061398, 3.23358, -1.30936, 0.343865, 3.46367, -1.25642, 0.161473, 3.37216, -1.1245, 0.363063, 3.63937, -1.08918, 0.363063, 3.63937, -1.08918, 0.855658, 3.54996, -1.1724, 0.44237, 3.76783, -0.620218, 0.363063, 3.63937, -1.08918, 0.854934, 3.49387, -1.24822, 1.43002, 3.32942, -1.14643, -1.56563, -0.177766, -0.920639, -1.64616, -0.216698, -0.546837, -1.20937, -0.245698, -0.684797, -1.39451, -0.207, -1.21448, -1.11385, -0.244014, -1.2296, -0.941756, -0.27402, -0.706507, -0.366458, -0.271716, -0.734411, 0.873097, -0.160985, -0.465872, 1.14568, -0.175742, -0.624807, -1.75442, 0.123274, -0.831404, -2.02107, 0.100244, -0.418457, -1.697, -0.065365, -0.744795, -1.56563, -0.177766, -0.920639, -1.697, -0.065365, -0.744795, -1.64616, -0.216698, -0.546837, -1.75442, 0.123274, -0.831404, -1.9972, 0.389315, -0.469616, -2.02107, 0.100244, -0.418457, -1.75442, 0.123274, -0.831404, -1.68849, 0.141363, -1.19404, -1.57063, 0.380925, -1.20479, -1.68849, 0.141363, -1.19404, -1.697, -0.065365, -0.744795, 1.14568, -0.175742, -0.624807, 1.45715, 0.019069, -0.393253, 1.4518, 0.028306, -0.638445, 1.14568, -0.175742, -0.624807, 1.19252, -0.077977, -1.01742, 1.05824, -0.225615, -0.808857, 0.983739, -0.215338, -1.19014, 1.90605, 0.201952, -0.590915, 1.81691, 0.313251, -1.04228, -1.57063, 0.380925, -1.20479, -2.21654, 1.00974, -0.401716, -1.71606, 0.80948, -1.10205, 2.19787, 0.423104, -0.470218, 2.09655, 0.458766, -0.88327, 1.95461, 0.215455, -0.44601, 1.81691, 0.313251, -1.04228, 2.50788, 0.637709, -0.633291, -1.54025, 1.23679, -1.20242, -1.91833, 1.34062, -0.596506, 2.75949, 0.877666, -0.463682, 2.74898, 0.965139, -0.714426, 2.51175, 0.570227, -0.450037, 2.51175, 0.570227, -0.450037, 2.74898, 0.965139, -0.714426, 2.57184, 0.884017, -0.903524, 3.12544, 1.13632, -0.379985, 3.13806, 1.28335, -0.874942, -1.91833, 1.34062, -0.596506, 3.13806, 1.28335, -0.874942, 3.228, 1.38837, -0.930988, 2.5775, 1.00977, -1.02092, 3.13806, 1.28335, -0.874942, 3.228, 1.38837, -0.930988, 3.3373, 1.38715, -0.507606, -1.91833, 1.34062, -0.596506, -1.5385, 1.86591, -0.799907, -1.86738, 1.74131, -0.388784, -1.42208, 1.77153, -1.04438, 3.228, 1.38837, -0.930988, 3.3373, 1.38715, -0.507606, 3.23967, 2.16458, -0.651407, 3.228, 1.38837, -0.930988, -1.43604, 1.97817, -0.458902, -1.33981, 1.99201, -0.972698, -1.10251, 2.25801, -0.728998, -1.5385, 1.86591, -0.799907, -1.09283, 2.51756, -0.629966, -1.10251, 2.25801, -0.728998, -0.93373, 2.42213, -0.990625, -0.975909, 2.21168, -1.02684, -0.975909, 2.21168, -1.02684, 2.99387, 2.63749, -0.713395, -0.554311, 3.12696, -0.282268, -1.11764, 2.48992, -0.234668, -1.09283, 2.51756, -0.629966, -0.689678, 2.89905, -0.737476, -1.09283, 2.51756, -0.629966, -0.689678, 2.89905, -0.737476, -0.689678, 2.89905, -0.737476, 2.4571, 2.91019, -0.869788, 2.99387, 2.63749, -0.713395, 2.48811, 3.15133, -0.446088, 2.55771, 2.69243, -1.04453, 2.79771, 2.34068, -1.13125, -0.479498, 3.05047, -0.562143, -0.689678, 2.89905, -0.737476, -0.302934, 3.23852, -0.639991, -0.100648, 3.46427, -0.621761, 2.07709, 3.17558, -0.782268, 1.43002, 3.32942, -1.14643, 1.79473, 3.22064, -1.24791, 2.07709, 3.17558, -0.782268, 2.17087, 2.95819, -0.96467, 1.91165, 2.97672, -1.33052, 2.31142, 2.62726, -1.25884, 0.363063, 3.63937, -1.08918, 0.140163, 3.68471, -0.622907, -0.100648, 3.46427, -0.621761, 0.363063, 3.63937, -1.08918, 0.161473, 3.37216, -1.1245, 0.847795, 3.75093, -0.405421, 0.855456, 3.57757, -0.992191, 1.26633, 3.7234, -0.130756, 1.43002, 3.32942, -1.14643, 2.07709, 3.17558, -0.782268, 2.28675, 3.20481, -0.369853, -1.75347, -0.386229, -0.092512, -1.64616, -0.216698, -0.546837, -1.95712, -0.187915, -0.291605, -1.44436, -0.390024, -0.158804, -1.05636, -0.34657, -0.379669, -0.848011, -0.297113, 0.001206, -0.712654, -0.259478, -0.056368, 0.419173, -0.162143, 0.024985, 0.605656, -0.190808, -0.138077, -2.02107, 0.100244, -0.418457, -2.2946, 0.024266, 0.104487, -1.697, -0.065365, -0.744795, 1.08828, -0.1413, 0.131394, 1.14568, -0.175742, -0.624807, 1.14568, -0.175742, -0.624807, 1.08828, -0.1413, 0.131394, 1.28906, -0.129319, -0.307861, 1.14568, -0.175742, -0.624807, 1.86629, 0.039495, -0.169548, 1.39853, -0.132298, 0.002035, 2.35426, 0.331661, -0.239702, 2.08042, 0.145789, -0.010465, -2.18819, 0.627291, -0.19569, -2.09105, 0.381385, -0.185125, 2.70821, 0.534713, -0.220514, 2.81676, 0.743703, -0.249136, 2.51175, 0.570227, -0.450037, 2.70821, 0.534713, -0.220514, -2.2368, 0.938594, -0.176477, -2.23329, 1.27508, -0.373867, -2.23329, 1.27508, -0.373867, 2.81676, 0.743703, -0.249136, 2.81676, 0.743703, -0.249136, 3.25041, 1.15932, -0.221714, 2.81676, 0.743703, -0.249136, -2.2368, 0.938594, -0.176477, -2.23329, 1.27508, -0.373867, -2.30324, 1.24232, -0.088441, -2.05323, 1.54272, -0.377746, -2.09473, 1.59725, -0.007106, -2.23329, 1.27508, -0.373867, -2.05323, 1.54272, -0.377746, -2.23329, 1.27508, -0.373867, 3.25041, 1.15932, -0.221714, 3.38027, 1.32956, -0.158346, 3.3373, 1.38715, -0.507606, 3.37703, 1.84008, -0.278167, -1.86738, 1.74131, -0.388784, -1.86738, 1.74131, -0.388784, -1.562, 1.93109, -0.250894, -1.57634, 1.89666, 0.000906, 3.37703, 1.84008, -0.278167, 3.38027, 1.32956, -0.158346, 3.38505, 1.69668, -0.080425, 3.38027, 1.32956, -0.158346, 3.26068, 2.17948, -0.330585, -1.18463, 2.32766, -0.088022, -1.18463, 2.32766, -0.088022, -1.23474, 2.25826, -0.384031, -1.20167, 2.40571, -0.292621, -1.18463, 2.32766, -0.088022, -1.23474, 2.25826, -0.384031, -1.09283, 2.51756, -0.629966, -1.10251, 2.25801, -0.728998, 3.2573, 2.34636, -0.108917, 3.23451, 2.56278, -0.214628, -1.11764, 2.48992, -0.234668, -1.18463, 2.32766, -0.088022, -1.20167, 2.40571, -0.292621, -1.11764, 2.48992, -0.234668, -1.20167, 2.40571, -0.292621, -1.09283, 2.51756, -0.629966, 3.17904, 2.74845, -0.196901, 2.93583, 2.98585, -0.160274, -1.24167, 2.4276, 0.287652, -0.554311, 3.12696, -0.282268, 2.07709, 3.17558, -0.782268, 2.54597, 3.2151, -0.25435, 2.4274, 3.30522, 0.050051, 2.93583, 2.98585, -0.160274, -0.24844, 3.56834, -0.177907, -0.226156, 3.60341, -0.039138, 0.240168, 3.82533, -0.270028, 0.786888, 3.75611, 0.129502, -1.91716, -0.314345, 0.548695, -2.01981, -0.221371, -0.108841, -1.74469, -0.445588, 0.353491, -1.74469, -0.445588, 0.353491, -1.13491, -0.414124, 0.160849, -0.144866, -0.172002, 0.230162, 0.749331, -0.219497, 0.426375, -2.2946, 0.024266, 0.104487, -2.37425, 0.371183, 0.148611, -2.42343, 0.290372, 0.349804, 0.261096, -0.132565, 0.325953, 1.7745, -0.008611, 0.174122, 2.25069, 0.170147, 0.49816, 1.94182, 0.040597, 0.431153, -2.44383, 0.613649, 0.075669, -2.51879, 0.708422, 0.207072, 2.6675, 0.528528, 0.302937, 2.36777, 0.343171, 0.090218, 2.70821, 0.534713, -0.220514, 2.77148, 0.732818, 0.177191, 2.70821, 0.534713, -0.220514, 2.6675, 0.528528, 0.302937, 2.81676, 0.743703, -0.249136, -2.58124, 1.01938, 0.1754, -2.51159, 0.947647, 0.517964, -2.51879, 0.708422, 0.207072, -2.5316, 1.12209, 0.096657, -2.58124, 1.01938, 0.1754, -2.30324, 1.24232, -0.088441, -2.5316, 1.12209, 0.096657, -2.2368, 0.938594, -0.176477, -2.2368, 0.938594, -0.176477, 3.08262, 1.16369, 0.263335, 3.17274, 1.13012, 0.026274, 2.77148, 0.732818, 0.177191, 2.81676, 0.743703, -0.249136, 3.17274, 1.13012, 0.026274, 3.25041, 1.15932, -0.221714, 2.81676, 0.743703, -0.249136, -2.50085, 1.19422, 0.307722, -2.58124, 1.01938, 0.1754, -2.5316, 1.12209, 0.096657, -2.34517, 1.40587, 0.199, -2.34517, 1.40587, 0.199, -2.5316, 1.12209, 0.096657, -2.30324, 1.24232, -0.088441, -2.09473, 1.59725, -0.007106, -2.09473, 1.59725, -0.007106, -2.30324, 1.24232, -0.088441, -2.23329, 1.27508, -0.373867, 3.38027, 1.32956, -0.158346, 3.10347, 1.4339, 0.272952, 3.38027, 1.32956, -0.158346, 3.08262, 1.16369, 0.263335, 3.38505, 1.69668, -0.080425, 3.38027, 1.32956, -0.158346, -2.19169, 1.60341, 0.408141, -2.00429, 1.75271, 0.223691, -1.78927, 1.90939, 0.402699, -1.49876, 2.10893, 0.396182, 3.06424, 1.8867, 0.391375, 3.38505, 1.69668, -0.080425, 3.24466, 2.05493, 0.210125, 3.38505, 1.69668, -0.080425, -1.49876, 2.10893, 0.396182, -1.23348, 2.23614, 0.08795, -1.28254, 2.31823, 0.344128, -1.23348, 2.23614, 0.08795, -1.18463, 2.32766, -0.088022, -1.18463, 2.32766, -0.088022, 3.0984, 2.35831, 0.152192, 3.17035, 2.43172, 0.008736, -1.28254, 2.31823, 0.344128, -1.11764, 2.48992, -0.234668, -1.24167, 2.4276, 0.287652, -1.18463, 2.32766, -0.088022, 2.6182, 3.17735, 0.054721, 2.93583, 2.98585, -0.160274, 3.17904, 2.74845, -0.196901, -0.539352, 3.19684, 0.081765, 2.6182, 3.17735, 0.054721, 2.6182, 3.17735, 0.054721, 0.145885, 3.70648, 0.338427, -0.283334, 3.3932, 0.456191, 1.64449, 3.64555, 0.567237, 1.99317, 3.50555, 0.28402, 2.21826, 3.40552, 0.358401, 2.6182, 3.17735, 0.054721, 2.21826, 3.40552, 0.358401, 2.4274, 3.30522, 0.050051, 0.321347, 3.7368, 0.345242, -2.09835, -0.180983, 1.02959, -1.69325, -0.290202, 0.740177, -1.74469, -0.445588, 0.353491, -1.44512, -0.401426, 0.651983, -1.74469, -0.445588, 0.353491, -0.737634, -0.322339, 0.678732, 0.239217, -0.151748, 0.756785, -0.254472, -0.21177, 1.24792, 0.680176, -0.179514, 0.829176, 1.58863, -0.218767, 0.625282, 1.58863, -0.218767, 0.625282, 1.1595, -0.308526, 0.987955, -2.49831, 0.163105, 0.560532, -2.49831, 0.163105, 0.560532, 1.58863, -0.218767, 0.625282, 1.77457, -0.111348, 0.741377, 2.115, 0.074461, 0.67297, 2.38798, 0.390107, 0.708449, -2.56992, 0.413995, 0.587603, -2.56992, 0.413995, 0.587603, -2.51879, 0.708422, 0.207072, -2.58646, 0.749686, 0.581324, -2.56992, 0.413995, 0.587603, -2.58646, 0.749686, 0.581324, -2.46298, 0.829145, 0.901408, -2.56992, 0.413995, 0.587603, 2.38798, 0.390107, 0.708449, 2.59613, 0.643496, 0.609736, 2.6675, 0.528528, 0.302937, 2.6675, 0.528528, 0.302937, 2.55868, 0.557463, 0.883463, -2.51159, 0.947647, 0.517964, -2.51159, 0.947647, 0.517964, -2.29682, 1.18253, 0.816382, -2.51159, 0.947647, 0.517964, -2.17954, 1.34789, 0.6857, -2.51159, 0.947647, 0.517964, 2.6675, 0.528528, 0.302937, 2.71238, 0.929811, 0.481432, 2.64613, 0.867803, 0.779635, 2.80129, 1.13783, 0.70213, 2.71238, 0.929811, 0.481432, 2.74975, 1.01967, 0.803225, 2.64613, 0.867803, 0.779635, -2.19169, 1.60341, 0.408141, -2.17954, 1.34789, 0.6857, -2.51159, 0.947647, 0.517964, 2.72128, 1.36108, 0.820177, 2.80129, 1.13783, 0.70213, 2.82571, 1.68103, 0.545884, 2.80129, 1.13783, 0.70213, 2.52296, 1.53873, 1.04822, -2.09033, 1.74387, 0.56461, -2.19169, 1.60341, 0.408141, -2.16029, 1.62373, 0.778574, -2.17954, 1.34789, 0.6857, -2.19169, 1.60341, 0.408141, -2.09033, 1.74387, 0.56461, -2.16029, 1.62373, 0.778574, -1.93973, 1.71084, 0.720505, -2.16029, 1.62373, 0.778574, -2.09033, 1.74387, 0.56461, -1.78927, 1.90939, 0.402699, -2.09033, 1.74387, 0.56461, -2.00429, 1.75271, 0.223691, -1.78927, 1.90939, 0.402699, 2.5899, 1.83884, 0.773356, 2.48616, 2.07575, 0.910937, -1.93973, 1.71084, 0.720505, -1.78927, 1.90939, 0.402699, -1.49876, 2.10893, 0.396182, -1.28254, 2.31823, 0.344128, -1.15104, 2.2542, 0.829789, -1.49876, 2.10893, 0.396182, -1.93973, 1.71084, 0.720505, -1.00754, 2.57016, 0.804904, -1.28254, 2.31823, 0.344128, -1.24167, 2.4276, 0.287652, -1.28254, 2.31823, 0.344128, -1.00754, 2.57016, 0.804904, -1.15104, 2.2542, 0.829789, 2.13059, 2.52354, 1.18404, -1.00754, 2.57016, 0.804904, 2.45081, 2.75107, 0.668299, 2.21826, 3.40552, 0.358401, 1.9661, 3.19605, 0.886296, 2.21826, 3.40552, 0.358401, 1.9661, 3.19605, 0.886296, 1.89193, 3.30617, 0.900622, 2.6182, 3.17735, 0.054721, 2.6182, 3.17735, 0.054721, -0.201632, 3.34888, 0.638386, -0.084512, 3.34917, 0.935113, 1.94373, 3.51544, 0.612008, 1.39001, 3.68256, 0.872002, 2.21826, 3.40552, 0.358401, 1.94373, 3.51544, 0.612008, 2.21826, 3.40552, 0.358401, 1.89193, 3.30617, 0.900622, 0.632897, 3.76699, 0.661635, 0.621005, 3.68147, 0.970227, 1.39001, 3.68256, 0.872002, -1.68821, -0.374024, 1.04077, -1.81708, -0.422226, 1.21635, -1.5105, -0.409291, 1.01159, -0.763664, -0.306694, 1.15443, 1.58863, -0.218767, 0.625282, 1.75143, -0.251033, 1.02023, 2.02004, -0.059985, 0.97451, 1.73816, -0.296257, 1.42781, 1.75143, -0.251033, 1.02023, 1.58863, -0.218767, 0.625282, -2.41652, 0.065225, 1.14195, -2.49831, 0.163105, 0.560532, -2.43279, 0.196915, 0.975029, -2.41652, 0.065225, 1.14195, -0.219192, -0.227073, 1.53066, 0.238871, -0.1416, 1.38633, 0.469102, -0.171701, 1.29595, 2.02004, -0.059985, 0.97451, 2.115, 0.074461, 0.67297, 2.01881, -0.11662, 1.28061, -2.49831, 0.163105, 0.560532, -2.56992, 0.413995, 0.587603, -2.43279, 0.196915, 0.975029, -2.56992, 0.413995, 0.587603, -2.53323, 0.550475, 0.995667, -2.53323, 0.550475, 0.995667, -2.38747, 0.914192, 1.11468, -2.59555, 0.513761, 1.16404, 2.4336, 0.437056, 1.02995, 2.63902, 0.868114, 1.09072, 2.27797, 0.176287, 1.24626, 2.4418, 0.481303, 1.29001, 2.74975, 1.01967, 0.803225, 2.64613, 0.867803, 0.779635, 2.55868, 0.557463, 0.883463, 2.55034, 1.11351, 1.06353, 2.80129, 1.13783, 0.70213, 2.74975, 1.01967, 0.803225, 2.74975, 1.01967, 0.803225, 2.55034, 1.11351, 1.06353, 2.74975, 1.01967, 0.803225, 2.63902, 0.868114, 1.09072, -2.15433, 1.55887, 0.968657, -2.15433, 1.55887, 0.968657, -2.22504, 1.47288, 1.16381, -2.22873, 1.25666, 1.12971, -2.15433, 1.55887, 0.968657, -1.81266, 1.54841, 1.6247, -1.25233, 2.07607, 1.10207, 2.24215, 1.66827, 1.30345, -1.25233, 2.07607, 1.10207, -1.05643, 2.45322, 1.06284, -1.05735, 2.26485, 1.1157, -1.15104, 2.2542, 0.829789, -1.25233, 2.07607, 1.10207, -1.15104, 2.2542, 0.829789, -1.05735, 2.26485, 1.1157, 2.14916, 2.25295, 1.17621, -1.05643, 2.45322, 1.06284, -0.938327, 2.4753, 1.39976, -0.938327, 2.4753, 1.39976, -1.00754, 2.57016, 0.804904, -0.652932, 2.6772, 1.31973, 1.97784, 2.77011, 1.24467, -0.652932, 2.6772, 1.31973, -0.201632, 3.34888, 0.638386, -0.283334, 3.3932, 0.456191, -0.084512, 3.34917, 0.935113, -0.084512, 3.34917, 0.935113, 0.156101, 3.45882, 0.981255, 0.042287, 3.1641, 1.29524, 1.53865, 2.9591, 1.22461, 1.89193, 3.30617, 0.900622, 1.53865, 2.9591, 1.22461, 1.42734, 3.20578, 1.19707, 0.621005, 3.68147, 0.970227, 0.632897, 3.76699, 0.661635, 0.88545, 3.66053, 0.985211, 0.621005, 3.68147, 0.970227, 1.39001, 3.68256, 0.872002, 0.88545, 3.66053, 0.985211, 0.632897, 3.76699, 0.661635, 1.39001, 3.68256, 0.872002, 1.42734, 3.20578, 1.19707, 0.88545, 3.66053, 0.985211, 1.39001, 3.68256, 0.872002, 1.39001, 3.68256, 0.872002, -1.78048, -0.443562, 1.45934, -1.87231, -0.416053, 1.75232, -1.87231, -0.416053, 1.75232, -0.90635, -0.406248, 1.6008, 0.994042, -0.308238, 1.86633, 1.67232, -0.324258, 1.62051, 1.67232, -0.324258, 1.62051, 1.67232, -0.324258, 1.62051, 1.73816, -0.296257, 1.42781, -2.41652, 0.065225, 1.14195, -2.43279, 0.196915, 0.975029, -2.54701, 0.151725, 1.29907, -2.54701, 0.151725, 1.29907, -2.60835, 0.396398, 1.4911, -2.55392, 0.142884, 1.6351, -2.55392, 0.142884, 1.6351, -2.60835, 0.396398, 1.4911, -2.5877, 0.223491, 1.6983, -2.09835, -0.180983, 1.02959, -2.41652, 0.065225, 1.14195, -2.55392, 0.142884, 1.6351, -2.55392, 0.142884, 1.6351, -1.87231, -0.416053, 1.75232, 2.01881, -0.11662, 1.28061, 2.23928, 0.176372, 1.45953, 2.02993, 0.072253, 1.71022, 2.01881, -0.11662, 1.28061, 1.73816, -0.296257, 1.42781, 1.88574, -0.081845, 1.55492, 2.02993, 0.072253, 1.71022, 2.27797, 0.176287, 1.24626, 2.23928, 0.176372, 1.45953, 2.4418, 0.481303, 1.29001, -2.54701, 0.151725, 1.29907, -2.59555, 0.513761, 1.16404, -2.59555, 0.513761, 1.16404, -2.49845, 0.806867, 1.35996, -2.56433, 0.428901, 1.65446, 2.4418, 0.481303, 1.29001, 2.23928, 0.176372, 1.45953, 2.10135, 0.642154, 1.66287, 2.02993, 0.072253, 1.71022, 2.51885, 0.722782, 1.30768, 2.63902, 0.868114, 1.09072, 2.4418, 0.481303, 1.29001, 2.10135, 0.642154, 1.66287, 2.19718, 0.889774, 1.5427, 2.51885, 0.722782, 1.30768, 2.51885, 0.722782, 1.30768, -2.21202, 1.36795, 1.3325, -2.42882, 1.02426, 1.47338, -2.38027, 1.0354, 1.71701, 1.87896, 1.05964, 1.65577, 2.41054, 1.13561, 1.43168, 2.51885, 0.722782, 1.30768, 2.51885, 0.722782, 1.30768, 2.42136, 0.930714, 1.35603, 2.41054, 1.13561, 1.43168, 2.41054, 1.13561, 1.43168, 2.42136, 0.930714, 1.35603, -2.14101, 1.49939, 1.34302, -2.14101, 1.49939, 1.34302, -2.22504, 1.47288, 1.16381, -2.15433, 1.55887, 0.968657, -2.14101, 1.49939, 1.34302, -2.24606, 1.32475, 1.88553, -2.24606, 1.32475, 1.88553, -2.14101, 1.49939, 1.34302, -2.14368, 1.41665, 1.96427, 1.98548, 1.6527, 1.46544, 2.39705, 1.34942, 1.40525, 2.39705, 1.34942, 1.40525, -1.58889, 1.69333, 1.51192, -0.886933, 1.94878, 1.86198, 2.18084, 1.87151, 1.32631, 1.68495, 1.77608, 1.61542, 1.92958, 1.91734, 1.44401, 2.39705, 1.34942, 1.40525, -0.938327, 2.4753, 1.39976, -0.886933, 1.94878, 1.86198, -0.938327, 2.4753, 1.39976, -0.89334, 2.13382, 1.60423, -0.938327, 2.4753, 1.39976, -0.886869, 2.30613, 1.62978, -0.89334, 2.13382, 1.60423, 1.68002, 2.22931, 1.49015, 1.47931, 2.15989, 1.67941, 1.7962, 2.46253, 1.40529, 1.68002, 2.22931, 1.49015, 1.29155, 2.14936, 1.81169, 1.44363, 2.57818, 1.43895, 1.47931, 2.15989, 1.67941, 1.7962, 2.46253, 1.40529, -0.608385, 2.42328, 1.82144, -0.608385, 2.42328, 1.82144, -0.165347, 2.86821, 1.50957, -0.608385, 2.42328, 1.82144, -0.084512, 3.34917, 0.935113, 0.428918, 2.92734, 1.43425, -0.279036, 2.35204, 1.98022, 0.641039, 3.14689, 1.35315, 1.1502, 3.04196, 1.35245, 0.806437, 2.58922, 1.69842, 1.97784, 2.77011, 1.24467, 1.25935, 2.68759, 1.39982, 1.7962, 2.46253, 1.40529, 1.47931, 2.15989, 1.67941, 1.97784, 2.77011, 1.24467, -0.165347, 2.86821, 1.50957, 0.042287, 3.1641, 1.29524, 0.621005, 3.68147, 0.970227, 0.88545, 3.66053, 0.985211, 0.88545, 3.66053, 0.985211, 1.0514, 2.68529, 1.58522, 1.9661, 3.19605, 0.886296, -1.87231, -0.416053, 1.75232, -1.28843, -0.343172, 1.98545, -1.61317, -0.33326, 2.02309, -0.683989, -0.221328, 2.07245, -0.394895, -0.212338, 1.88904, 0.095163, -0.143711, 1.95386, 0.623719, -0.184272, 2.08873, 1.66516, -0.392114, 2.0684, 1.67232, -0.324258, 1.62051, 1.85711, -0.169495, 1.90315, 1.67232, -0.324258, 1.62051, 1.66516, -0.392114, 2.0684, -2.5877, 0.223491, 1.6983, -2.16948, 0.170939, 1.97205, -2.55392, 0.142884, 1.6351, -2.16948, 0.170939, 1.97205, -1.87231, -0.416053, 1.75232, -2.55392, 0.142884, 1.6351, -1.87231, -0.416053, 1.75232, -2.16948, 0.170939, 1.97205, -1.61317, -0.33326, 2.02309, -2.43884, 0.41587, 2.02381, -0.148387, -0.068087, 2.17694, 1.58441, -0.050415, 2.2521, 1.66947, 0.392604, 2.08963, 2.02993, 0.072253, 1.71022, 1.85711, -0.169495, 1.90315, 1.76987, -0.239719, 2.16968, 1.85711, -0.169495, 1.90315, -2.48805, 0.830882, 2.02822, -2.43884, 0.41587, 2.02381, 2.10135, 0.642154, 1.66287, 1.76879, 0.820325, 1.81284, 1.74682, 1.3946, 1.63692, 1.4341, 1.03541, 2.01382, 1.76879, 0.820325, 1.81284, -2.14368, 1.41665, 1.96427, -1.89215, 1.38468, 2.13011, -2.14368, 1.41665, 1.96427, 1.32053, 1.78773, 1.86716, 1.33457, 1.46412, 1.90884, 1.20446, 1.62317, 2.01206, 1.1602, 1.28091, 2.11424, 1.74682, 1.3946, 1.63692, 1.4341, 1.03541, 2.01382, 1.57799, 1.56548, 1.81104, 1.57799, 1.56548, 1.81104, -1.19827, 1.62443, 2.15187, 1.47931, 2.15989, 1.67941, -0.938327, 2.4753, 1.39976, -0.608385, 2.42328, 1.82144, -0.886869, 2.30613, 1.62978, -0.748008, 2.05648, 2.07286, -0.748008, 2.05648, 2.07286, -0.748008, 2.05648, 2.07286, -0.748008, 2.05648, 2.07286, 0.790065, 2.22766, 1.96652, 1.14428, 2.32346, 1.83799, 0.790065, 2.22766, 1.96652, -1.61317, -0.33326, 2.02309, -1.49945, -0.133766, 2.28421, -1.14892, -0.070347, 2.37663, 0.928035, -0.2613, 2.26852, 0.789849, -0.079757, 2.41966, 0.928035, -0.2613, 2.26852, 0.623719, -0.184272, 2.08873, 1.39784, -0.290737, 2.16652, 1.39784, -0.290737, 2.16652, 1.66516, -0.392114, 2.0684, 0.994042, -0.308238, 1.86633, 1.76987, -0.239719, 2.16968, 1.76987, -0.239719, 2.16968, 1.66516, -0.392114, 2.0684, 1.39784, -0.290737, 2.16652, 1.39784, -0.290737, 2.16652, 1.58441, -0.050415, 2.2521, 1.76987, -0.239719, 2.16968, -1.49945, -0.133766, 2.28421, -1.59495, 0.164347, 2.52525, -1.59495, 0.164347, 2.52525, -1.14892, -0.070347, 2.37663, -1.21322, 0.245042, 2.584, -0.927579, 0.181247, 2.51095, -0.148387, -0.068087, 2.17694, -0.148387, -0.068087, 2.17694, -0.318025, 0.009938, 2.24244, -0.220769, 0.280008, 2.31723, -0.461747, 0.44326, 2.40715, -0.148387, -0.068087, 2.17694, -0.220769, 0.280008, 2.31723, 0.110187, -0.011848, 2.29679, 0.110187, -0.011848, 2.29679, 0.27573, 0.119329, 2.47475, 0.110187, -0.011848, 2.29679, 0.110187, -0.011848, 2.29679, 0.789849, -0.079757, 2.41966, 0.789849, -0.079757, 2.41966, 0.110187, -0.011848, 2.29679, 0.928035, -0.2613, 2.26852, 1.1208, 0.152218, 2.57878, 0.928035, -0.2613, 2.26852, 1.36435, 0.088875, 2.40368, 1.1208, 0.152218, 2.57878, 1.36435, 0.088875, 2.40368, -2.42141, 0.582003, 2.17289, -2.43884, 0.41587, 2.02381, -2.27474, 0.663757, 2.496, -2.43884, 0.41587, 2.02381, -1.85136, 0.420167, 2.59229, -2.27474, 0.663757, 2.496, -0.451773, 0.655513, 2.48714, -0.153726, 0.568308, 2.44039, 1.21165, 0.753419, 2.37507, 1.1208, 0.152218, 2.57878, -2.27474, 0.663757, 2.496, -2.48805, 0.830882, 2.02822, -2.21569, 0.950062, 2.51192, -2.1403, 1.29344, 2.40559, -2.21569, 0.950062, 2.51192, -2.48805, 0.830882, 2.02822, 0.72617, 1.46135, 2.36959, -2.1403, 1.29344, 2.40559, -2.1403, 1.29344, 2.40559, -1.90348, 1.3767, 2.4615, -2.1403, 1.29344, 2.40559, -2.14368, 1.41665, 1.96427, -1.90348, 1.3767, 2.4615, -2.01821, 1.33688, 2.47612, -2.1403, 1.29344, 2.40559, -1.90348, 1.3767, 2.4615, -1.71201, 1.31953, 2.37169, -1.90348, 1.3767, 2.4615, -1.89215, 1.38468, 2.13011, -1.71201, 1.31953, 2.37169, -1.13245, 1.45308, 2.50032, -0.727153, 1.40485, 2.4468, -0.248313, 1.56361, 2.42846, -0.571349, 1.24167, 2.41743, -0.950277, 1.61912, 2.38629, 0.275409, 1.45156, 2.48966, -0.013546, 1.1224, 2.45481, 0.94858, 1.51923, 2.08667, -0.950277, 1.61912, 2.38629, -1.13245, 1.45308, 2.50032, -0.886933, 1.94878, 1.86198, -0.950277, 1.61912, 2.38629, -1.19827, 1.62443, 2.15187, -0.267551, 1.98519, 2.24406, -0.950277, 1.61912, 2.38629, 0.121941, 1.88633, 2.33336, 0.39181, 1.8613, 2.39688, 0.121941, 1.88633, 2.33336, 0.790065, 2.22766, 1.96652, 0.39181, 1.8613, 2.39688, 0.6493, 1.99384, 2.25023, 0.790065, 2.22766, 1.96652, 0.39181, 1.8613, 2.39688, 0.439252, 1.55578, 2.45687, 0.6493, 1.99384, 2.25023, -1.59495, 0.164347, 2.52525, 0.725456, 0.085616, 2.57303, 0.909177, 0.375768, 2.65097, 0.290253, 0.674284, 2.54457, 1.1208, 0.152218, 2.57878, 0.725456, 0.085616, 2.57303, 0.909177, 0.375768, 2.65097, -1.59495, 0.164347, 2.52525, -1.85136, 0.420167, 2.59229, -1.42449, 0.586557, 2.61252, -2.27474, 0.663757, 2.496, -1.92916, 0.666965, 2.67437, -1.85136, 0.420167, 2.59229, -1.92916, 0.666965, 2.67437, -1.58649, 0.779863, 2.66487, -1.00178, 0.575424, 2.57311, -1.07245, 0.834469, 2.6586, 0.628276, 0.951345, 2.70327, 0.752249, 0.599642, 2.6935, 1.1208, 0.152218, 2.57878, 0.909177, 0.375768, 2.65097, 0.628276, 0.951345, 2.70327, 0.752249, 0.599642, 2.6935, -2.1403, 1.29344, 2.40559, -2.01821, 1.33688, 2.47612, -2.21569, 0.950062, 2.51192, -2.21569, 0.950062, 2.51192, -2.01821, 1.33688, 2.47612, -1.83248, 1.01251, 2.61931, -1.76534, 1.31426, 2.56778, -1.58721, 1.12565, 2.67634, -1.92916, 0.666965, 2.67437, -1.92916, 0.666965, 2.67437, -1.92916, 0.666965, 2.67437, -2.27474, 0.663757, 2.496, -2.21569, 0.950062, 2.51192, -1.13987, 1.22044, 2.58757, -0.552414, 0.974971, 2.47702, -0.266968, 1.15159, 2.47888, 0.299989, 0.987644, 2.5705, 0.628276, 0.951345, 2.70327, 0.61526, 1.25506, 2.59148, -1.39461, 1.31197, 2.59548, -1.90348, 1.3767, 2.4615, -1.71201, 1.31953, 2.37169, -1.90348, 1.3767, 2.4615, -1.39461, 1.31197, 2.59548, -1.76534, 1.31426, 2.56778, -1.90348, 1.3767, 2.4615, -1.76534, 1.31426, 2.56778, -2.01821, 1.33688, 2.47612, -1.13245, 1.45308, 2.50032, -1.39461, 1.31197, 2.59548, -1.71201, 1.31953, 2.37169, -1.13245, 1.45308, 2.50032, -1.39461, 1.31197, 2.59548, -1.39461, 1.31197, 2.59548, -1.39461, 1.31197, 2.59548, -1.58721, 1.12565, 2.67634, -1.76534, 1.31426, 2.56778, 0.439252, 1.55578, 2.45687, 0.439252, 1.55578, 2.45687, 0.61526, 1.25506, 2.59148, 0.628276, 0.951345, 2.70327, 0.439252, 1.55578, 2.45687, 0.61526, 1.25506, 2.59148, 0.39181, 1.8613, 2.39688 )

[node name="RockMedium2" type="MeshInstance"]
mesh = ExtResource( 1 )
material/0 = ExtResource( 2 )

[node name="StaticBody" type="StaticBody" parent="."]

[node name="CollisionShape" type="CollisionShape" parent="StaticBody"]
shape = SubResource( 1 )
