[gd_resource type="SpatialMaterial" load_steps=4 format=2]

[ext_resource path="res://assets/textures/[2K]Wood06/Wood06_col.jpg" type="Texture" id=1]
[ext_resource path="res://assets/textures/[2K]Wood06/Wood06_nrm.jpg" type="Texture" id=2]
[ext_resource path="res://assets/textures/[2K]Wood06/Wood06_rgh2.jpg" type="Texture" id=3]

[resource]
albedo_texture = ExtResource( 1 )
roughness_texture = ExtResource( 3 )
normal_enabled = true
normal_scale = 1.0
normal_texture = ExtResource( 2 )
