[gd_scene load_steps=2 format=2]

[ext_resource path="res://prefabs/props/Cactus1.tscn" type="PackedScene" id=1]

[node name="Cactus2" type="Spatial"]

[node name="Cactus3" parent="." instance=ExtResource( 1 )]
transform = Transform( 0.405706, -0.0869913, 0, 0.083785, 0.390752, -0.111613, 0.0234002, 0.109133, 0.399634, -0.438423, -0.715618, -0.0440111 )

[node name="Cactus2" parent="." instance=ExtResource( 1 )]
transform = Transform( 0.736619, 0.265742, 0.0119779, -0.264776, 0.729058, 0.108343, 0.0256117, -0.105951, 0.775556, 0.760845, -0.186232, 0.298503 )

[node name="Cactus1" parent="." instance=ExtResource( 1 )]
