[gd_scene load_steps=4 format=2]

[ext_resource path="res://assets/models/Crate.obj" type="ArrayMesh" id=1]
[ext_resource path="res://assets/materials/wood_fence.tres" type="Material" id=2]

[sub_resource type="ConvexPolygonShape" id=1]
points = PoolVector3Array( -0.536238, 0.376308, -0.362671, -0.536238, -0.376308, -0.362671, 0.536238, 0.376308, -0.362671, 0.536238, -0.376308, -0.362671, 0.536238, 0.376308, 0.362671, 0.536238, -0.376308, 0.362671, -0.536238, 0.376308, 0.362671, -0.536238, -0.376308, 0.362671, 0.670079, 0.376308, -0.274226, 0.670079, -0.376308, -0.274226, 0.670079, 0.376308, 0.274226, 0.670079, -0.376308, 0.274226, -0.536238, 0.483405, -0.274226, 0.536238, 0.483405, -0.274226, -0.536238, 0.483405, 0.274226, 0.536238, 0.483405, 0.274226, -0.670078, -0.376308, -0.274226, -0.670078, 0.376308, -0.274226, -0.670078, -0.376308, 0.274226, -0.670078, 0.376308, 0.274226, 0.536238, -0.483405, -0.274226, -0.536238, -0.483405, -0.274226, 0.536238, -0.483405, 0.274226, -0.536238, -0.483405, 0.274226, -0.680079, -0.493405, -0.372671, 0.680079, -0.493405, -0.372671, -0.536238, -0.376308, -0.372671, 0.536238, -0.376308, -0.372671, -0.680079, 0.493405, -0.372671, -0.536238, 0.376308, -0.372671, 0.680079, 0.493405, -0.372671, 0.536238, 0.376308, -0.372671, 0.680079, 0.493405, 0.372671, 0.680079, -0.493405, 0.372671, 0.536238, 0.376308, 0.372671, 0.536238, -0.376308, 0.372671, -0.680079, 0.493405, 0.372671, -0.536238, 0.376308, 0.372671, -0.680079, -0.493405, 0.372671, -0.536238, -0.376308, 0.372671, 0.680079, 0.493405, -0.372671, 0.680079, -0.493405, -0.372671, 0.680079, 0.376308, -0.274226, 0.680079, -0.376308, -0.274226, 0.680079, 0.493405, 0.372671, 0.680079, 0.376308, 0.274226, 0.680079, -0.493405, 0.372671, 0.680079, -0.376308, 0.274226, -0.680079, 0.493405, -0.372671, 0.680079, 0.493405, -0.372671, -0.536238, 0.493405, -0.274226, 0.536238, 0.493405, -0.274226, -0.680079, 0.493405, 0.372671, -0.536238, 0.493405, 0.274226, 0.680079, 0.493405, 0.372671, 0.536238, 0.493405, 0.274226, -0.680079, -0.493405, -0.372671, -0.680079, 0.493405, -0.372671, -0.680079, -0.376308, -0.274226, -0.680079, 0.376308, -0.274226, -0.680079, -0.493405, 0.372671, -0.680079, -0.376308, 0.274226, -0.680079, 0.493405, 0.372671, -0.680079, 0.376308, 0.274226, 0.680079, -0.493405, -0.372671, -0.680079, -0.493405, -0.372671, 0.536238, -0.493405, -0.274226, -0.536238, -0.493405, -0.274226, 0.680079, -0.493405, 0.372671, 0.536238, -0.493405, 0.274226, -0.680079, -0.493405, 0.372671, -0.536238, -0.493405, 0.274226, -0.536238, -0.376308, -0.372671, 0.536238, -0.376308, -0.372671, -0.536238, -0.376308, -0.362671, 0.536238, -0.376308, -0.362671, -0.536238, 0.376308, -0.372671, -0.536238, -0.376308, -0.372671, -0.536238, 0.376308, -0.362671, -0.536238, -0.376308, -0.362671, 0.536238, 0.376308, -0.372671, -0.536238, 0.376308, -0.372671, 0.536238, 0.376308, -0.362671, -0.536238, 0.376308, -0.362671, 0.536238, -0.376308, -0.372671, 0.536238, 0.376308, -0.372671, 0.536238, -0.376308, -0.362671, 0.536238, 0.376308, -0.362671, 0.536238, 0.376308, 0.372671, 0.536238, -0.376308, 0.372671, 0.536238, 0.376308, 0.362671, 0.536238, -0.376308, 0.362671, -0.536238, 0.376308, 0.372671, 0.536238, 0.376308, 0.372671, -0.536238, 0.376308, 0.362671, 0.536238, 0.376308, 0.362671, -0.536238, -0.376308, 0.372671, -0.536238, 0.376308, 0.372671, -0.536238, -0.376308, 0.362671, -0.536238, 0.376308, 0.362671, 0.536238, -0.376308, 0.372671, -0.536238, -0.376308, 0.372671, 0.536238, -0.376308, 0.362671, -0.536238, -0.376308, 0.362671, 0.680079, 0.376308, -0.274226, 0.680079, -0.376308, -0.274226, 0.670079, 0.376308, -0.274226, 0.670079, -0.376308, -0.274226, 0.680079, 0.376308, 0.274226, 0.680079, 0.376308, -0.274226, 0.670079, 0.376308, 0.274226, 0.670079, 0.376308, -0.274226, 0.680079, -0.376308, 0.274226, 0.680079, 0.376308, 0.274226, 0.670079, -0.376308, 0.274226, 0.670079, 0.376308, 0.274226, 0.680079, -0.376308, -0.274226, 0.680079, -0.376308, 0.274226, 0.670079, -0.376308, -0.274226, 0.670079, -0.376308, 0.274226, -0.536238, 0.493405, -0.274226, 0.536238, 0.493405, -0.274226, -0.536238, 0.483405, -0.274226, 0.536238, 0.483405, -0.274226, -0.536238, 0.493405, 0.274226, -0.536238, 0.493405, -0.274226, -0.536238, 0.483405, 0.274226, -0.536238, 0.483405, -0.274226, 0.536238, 0.493405, 0.274226, -0.536238, 0.493405, 0.274226, 0.536238, 0.483405, 0.274226, -0.536238, 0.483405, 0.274226, 0.536238, 0.493405, -0.274226, 0.536238, 0.493405, 0.274226, 0.536238, 0.483405, -0.274226, 0.536238, 0.483405, 0.274226, -0.680079, -0.376308, -0.274226, -0.680079, 0.376308, -0.274226, -0.670078, -0.376308, -0.274226, -0.670078, 0.376308, -0.274226, -0.680079, -0.376308, 0.274226, -0.680079, -0.376308, -0.274226, -0.670078, -0.376308, 0.274226, -0.670078, -0.376308, -0.274226, -0.680079, 0.376308, 0.274226, -0.680079, -0.376308, 0.274226, -0.670078, 0.376308, 0.274226, -0.670078, -0.376308, 0.274226, -0.680079, 0.376308, -0.274226, -0.680079, 0.376308, 0.274226, -0.670078, 0.376308, -0.274226, -0.670078, 0.376308, 0.274226, 0.536238, -0.493405, -0.274226, -0.536238, -0.493405, -0.274226, 0.536238, -0.483405, -0.274226, -0.536238, -0.483405, -0.274226, 0.536238, -0.493405, 0.274226, 0.536238, -0.493405, -0.274226, 0.536238, -0.483405, 0.274226, 0.536238, -0.483405, -0.274226, -0.536238, -0.493405, 0.274226, 0.536238, -0.493405, 0.274226, -0.536238, -0.483405, 0.274226, 0.536238, -0.483405, 0.274226, -0.536238, -0.493405, -0.274226, -0.536238, -0.493405, 0.274226, -0.536238, -0.483405, -0.274226, -0.536238, -0.483405, 0.274226 )

[node name="Crate" type="Spatial"]

[node name="Crate" type="MeshInstance" parent="."]
transform = Transform( 2, 0, 0, 0, 2, 0, 0, 0, 2, 0, 0, 0 )
mesh = ExtResource( 1 )
material/0 = ExtResource( 2 )

[node name="StaticBody" type="StaticBody" parent="Crate"]

[node name="CollisionShape" type="CollisionShape" parent="Crate/StaticBody"]
shape = SubResource( 1 )
