[gd_scene load_steps=4 format=2]

[ext_resource path="res://assets/models/Log.obj" type="ArrayMesh" id=1]
[ext_resource path="res://assets/materials/wood_fence.tres" type="Material" id=2]

[sub_resource type="ConvexPolygonShape" id=1]
points = PoolVector3Array( -0.0735484, -0.0999538, -0.00942248, -0.060594, -0.0999538, -0.049292, -0.0675484, 0.00665302, -0.01925, -0.054594, 0.00665302, -0.0591195, 0.0551572, -0.603941, 0.0591195, 0.0551572, -0.489192, 0.0451195, 0.0681116, -0.603941, 0.01925, 0.0681116, -0.489192, 0.00525001, -0.054594, -0.489192, 0.0451195, -0.060594, -0.0999538, 0.0371195, -0.020679, -0.489192, 0.0697602, -0.026679, -0.0999538, 0.0617602, -0.020679, 0.00665302, 0.0537602, 0.0152422, -0.0999538, 0.0617602, 0.0212422, 0.00665302, 0.0537602, 0.0491572, -0.0999538, 0.0371195, 0.0621116, -0.0999538, -0.00275001, 0.0681116, 0.00665302, -0.01075, 0.0491572, -0.0999538, -0.049292, 0.0551572, 0.00665302, -0.0591195, -0.0656852, 0.199482, 0.00289997, -0.053249, 0.199482, -0.0353748, 0.0295538, 0.199482, 0.0580297, -0.0106906, 0.199482, 0.0580297, 0.0212422, -0.489192, -0.0732602, -0.020679, -0.489192, -0.0732602, 0.0212422, -0.603941, -0.0692602, -0.020679, -0.603941, -0.0692602, 0.0621122, 0.199482, -0.0353748, 0.0745484, 0.199482, 0.00289997, -0.0745484, -0.603941, 0.01925, -0.0675484, -0.489192, 0.00525001, -0.061594, -0.603941, 0.0591195, -0.054594, -0.489192, 0.0451195, -0.026679, -0.0999538, -0.0739326, 0.0152422, -0.0999538, -0.0739326, -0.060594, -0.0999538, -0.049292, -0.054594, 0.00665302, -0.0591195, -0.020679, 0.00665302, -0.0837602, 0.0551572, 0.494628, 0.0351195, 0.0212422, 0.494628, 0.0597602, 0.0513159, 0.603941, 0.0323286, 0.019775, 0.603941, 0.0552445, -0.0628003, 0.603941, -0.00475001, -0.0615484, 0.494628, -0.00475001, -0.0507527, 0.603941, -0.0418286, -0.040594, 0.494628, -0.0446195, 0.0272422, 0.494628, -0.0692602, 0.0551572, 0.494628, -0.0446195, 0.019775, 0.603941, -0.0647444, 0.0513159, 0.603941, -0.0418286, 0.0551572, -0.603941, -0.0446195, 0.0551572, -0.489192, -0.0486195, 0.0551572, -0.603941, -0.0446195, 0.0551572, -0.489192, -0.0486195, 0.0551572, 0.494628, -0.0446195, 0.0681116, 0.494628, -0.00475001, 0.0513159, 0.603941, -0.0418286, 0.0633635, 0.603941, -0.00475001, 0.0551572, 0.494628, 0.0351195, 0.0513159, 0.603941, 0.0323286, -0.040594, 0.494628, -0.0446195, -0.00667903, 0.494628, -0.0692602, -0.0507527, 0.603941, -0.0418286, -0.0192118, 0.603941, -0.0647444, 0.0272422, 0.494628, -0.0692602, 0.019775, 0.603941, -0.0647444, -0.054594, 0.494628, 0.0351195, -0.0615484, 0.494628, -0.00475001, -0.0507527, 0.603941, 0.0323286, -0.0628003, 0.603941, -0.00475001, -0.020679, 0.494628, 0.0597602, -0.0192118, 0.603941, 0.0552445, -0.054594, 0.494628, 0.0351195, -0.0507527, 0.603941, 0.0323286, 0.0551572, -0.603941, 0.0591195, 0.0212422, -0.603941, 0.0837602, 0.0551572, -0.489192, 0.0451195, 0.0212422, -0.489192, 0.0697602, -0.060594, -0.0999538, 0.0371195, -0.054594, 0.00665302, 0.0291195, 0.0491572, -0.0999538, 0.0371195, 0.0551572, 0.00665302, 0.0291195, -0.0106906, 0.199482, -0.0590298, -0.054594, 0.00665302, -0.0591195, -0.053249, 0.199482, -0.0353748, -0.043249, 0.199482, 0.0343746, 0.0621122, 0.199482, 0.0343746, -0.061594, -0.603941, -0.0446195, -0.054594, -0.489192, -0.0486195, 0.0212422, 0.00665302, -0.0837602, -0.027679, -0.603941, 0.0837602, 0.0621122, 0.199482, 0.0343746, -0.053249, 0.199482, -0.0353748, -0.0656852, 0.199482, 0.00289997, 0.0621122, 0.199482, -0.0353748, 0.0295538, 0.199482, -0.0590298, 0.0295538, 0.199482, -0.0590298, -0.043249, 0.199482, 0.0343746, -0.0656852, 0.199482, 0.00289997, -0.054594, 0.494628, 0.0351195, -0.0615484, 0.494628, -0.00475001, -0.054594, 0.00665302, 0.0291195, 0.0551572, 0.00665302, 0.0291195, 0.0491572, -0.0999538, -0.049292, 0.0551572, 0.00665302, -0.0591195, -0.043249, 0.199482, 0.0343746, -0.0656852, 0.199482, 0.00289997, -0.054594, -0.489192, -0.0486195, -0.061594, -0.603941, -0.0446195, 0.0295538, 0.199482, -0.0590298, 0.0621122, 0.199482, -0.0353748, -0.061594, -0.603941, 0.0591195, -0.0628003, 0.603941, -0.00475001, -0.0507527, 0.603941, -0.0418286, -0.0531268, 0.603941, -0.00475001, -0.0429267, 0.603941, -0.0361427, -0.0507527, 0.603941, 0.0323286, -0.0429267, 0.603941, 0.0266427, -0.0192118, 0.603941, 0.0552445, -0.0162225, 0.603941, 0.0460445, 0.019775, 0.603941, 0.0552445, 0.0167857, 0.603941, 0.0460445, 0.0513159, 0.603941, 0.0323286, 0.0434899, 0.603941, 0.0266427, 0.0633635, 0.603941, -0.00475001, 0.05369, 0.603941, -0.00475001, 0.0513159, 0.603941, -0.0418286, 0.0434899, 0.603941, -0.0361427, 0.019775, 0.603941, -0.0647444, 0.0167857, 0.603941, -0.0555444, -0.0192118, 0.603941, -0.0647444, -0.0162225, 0.603941, -0.0555444, -0.0429267, 0.603941, -0.0361427, -0.0162225, 0.603941, -0.0555444, -0.0429267, 0.597941, -0.0361427, -0.0162225, 0.597941, -0.0555444, -0.0531268, 0.603941, -0.00475001, -0.0429267, 0.603941, -0.0361427, -0.0531268, 0.597941, -0.00475001, -0.0429267, 0.597941, -0.0361427, -0.0429267, 0.603941, 0.0266427, -0.0429267, 0.597941, 0.0266427, -0.0162225, 0.603941, 0.0460445, -0.0429267, 0.603941, 0.0266427, -0.0162225, 0.597941, 0.0460445, -0.0429267, 0.597941, 0.0266427, 0.0167857, 0.603941, 0.0460445, 0.0167857, 0.597941, 0.0460445, 0.0434899, 0.603941, 0.0266427, 0.0434899, 0.597941, 0.0266427, 0.05369, 0.603941, -0.00475001, 0.0434899, 0.603941, 0.0266427, 0.05369, 0.597941, -0.00475001, 0.0434899, 0.597941, 0.0266427, 0.0434899, 0.603941, -0.0361427, 0.0434899, 0.597941, -0.0361427, 0.0167857, 0.603941, -0.0555444, 0.0434899, 0.603941, -0.0361427, 0.0167857, 0.597941, -0.0555444, 0.0434899, 0.597941, -0.0361427, -0.0429267, 0.597941, -0.0361427, -0.0162225, 0.597941, -0.0555444, -0.0531268, 0.597941, -0.00475001, -0.0429267, 0.597941, 0.0266427, -0.0162225, 0.597941, 0.0460445, 0.0167857, 0.597941, 0.0460445, 0.0434899, 0.597941, 0.0266427, 0.05369, 0.597941, -0.00475001, 0.0434899, 0.597941, -0.0361427, 0.0167857, 0.597941, -0.0555444, -0.0745484, -0.603941, 0.01925, -0.061594, -0.603941, 0.0591195, -0.0640188, -0.603941, 0.0186489, -0.0529174, -0.603941, 0.0528155, -0.061594, -0.603941, -0.0446195, -0.0524892, -0.603941, -0.0381959, -0.020679, -0.603941, -0.0692602, -0.0178448, -0.603941, -0.0590602, 0.0212422, -0.603941, -0.0692602, 0.017928, -0.603941, -0.0590602, 0.0551572, -0.603941, -0.0446195, 0.0459499, -0.603941, -0.0387011, 0.0681116, -0.603941, 0.01925, 0.057582, -0.603941, 0.0186489, 0.0551572, -0.603941, 0.0591195, 0.0464806, -0.603941, 0.0528155, 0.0212422, -0.603941, 0.0837602, 0.017928, -0.603941, 0.0735601, -0.027679, -0.603941, 0.0837602, -0.0243648, -0.603941, 0.0735601, 0.017928, -0.603941, 0.0735601, 0.0464806, -0.603941, 0.0528155, 0.0166933, -0.599941, 0.0697602, 0.0432481, -0.599941, 0.050467, -0.0243648, -0.603941, 0.0735601, -0.0231302, -0.599941, 0.0697602, -0.0529174, -0.603941, 0.0528155, -0.0496849, -0.599941, 0.050467, -0.0640188, -0.603941, 0.0186489, -0.060096, -0.599941, 0.018425, -0.0524892, -0.603941, -0.0381959, -0.0490972, -0.599941, -0.0358028, -0.0178448, -0.603941, -0.0590602, -0.0167889, -0.599941, -0.0552602, 0.017928, -0.603941, -0.0590602, 0.0166934, -0.599941, -0.0552602, 0.0459499, -0.603941, -0.0387011, 0.0425198, -0.599941, -0.0364962, 0.057582, -0.603941, 0.0186489, 0.0536592, -0.599941, 0.018425, 0.0425198, -0.599941, -0.0364962, 0.0166934, -0.599941, -0.0552602, 0.0536592, -0.599941, 0.018425, 0.0432481, -0.599941, 0.050467, 0.0166933, -0.599941, 0.0697602, -0.0231302, -0.599941, 0.0697602, -0.0496849, -0.599941, 0.050467, -0.060096, -0.599941, 0.018425, -0.0490972, -0.599941, -0.0358028, -0.0167889, -0.599941, -0.0552602 )

[node name="Log" type="Spatial"]

[node name="Log" type="MeshInstance" parent="."]
transform = Transform( 3.92422, 0, 0, 0, 3.92422, 0, 0, 0, 3.92422, 0, 0.90464, 0 )
mesh = ExtResource( 1 )
material/0 = ExtResource( 2 )

[node name="StaticBody" type="StaticBody" parent="Log"]

[node name="CollisionShape" type="CollisionShape" parent="Log/StaticBody"]
shape = SubResource( 1 )
