[gd_scene load_steps=6 format=2]

[ext_resource path="res://assets/models/planks/planksplit_lp.obj" type="ArrayMesh" id=1]
[ext_resource path="res://assets/models/planks/planksplit_planks_lp_initialShadingGroup_BaseColor.png" type="Texture" id=2]
[ext_resource path="res://assets/models/planks/planksplit_planks_lp_initialShadingGroup_Normal.png" type="Texture" id=3]

[sub_resource type="SpatialMaterial" id=1]
albedo_texture = ExtResource( 2 )
roughness = 0.9
normal_enabled = true
normal_scale = 1.0
normal_texture = ExtResource( 3 )

[sub_resource type="ConvexPolygonShape" id=2]
points = PoolVector3Array( 0.021492, 0.183446, 0.157483, -0.021492, 0.183446, 0.157483, 0.021492, 0.18232, 0.664531, -0.021492, 0.18232, 0.664531, 0.021492, 0.29397, 0.664531, -0.021492, 0.29397, 0.664531, 0.021492, 0.29397, -0.854471, -0.021492, 0.29397, -0.854471, 0.021492, 0.18232, -0.854471, -0.021492, 0.18232, -0.854471, 0.021492, 0.183446, -0.854471, -0.021492, 0.183446, -0.854471, 0.021492, 0.122349, -0.854471, -0.021492, 0.122349, -0.854471, 0.021492, 0.122349, 0.664531, -0.021492, 0.122349, 0.664531, 0.021492, 0.183446, -0.854471, 0.021492, 0.183446, 0.157483, 0.021492, 0.18232, -0.854471, 0.021492, 0.18232, 0.664531, -0.021492, 0.183446, 0.157483, -0.021492, 0.183446, -0.854471, -0.021492, 0.18232, 0.664531, -0.021492, 0.18232, -0.854471, 0.021492, 0.122349, 0.664531, -0.021492, 0.122349, 0.664531, 0.021492, 0.173836, 0.664531, -0.021492, 0.173836, 0.664531, 0.021492, 0.122349, -0.854471, 0.021492, 0.122349, 0.664531, 0.021492, 0.173836, -0.854471, 0.021492, 0.173836, 0.664531, 0.021492, 0.173836, -0.854471, -0.021492, 0.173836, -0.854471, 0.021492, 0.122349, -0.854471, -0.021492, 0.122349, -0.854471, -0.021492, 0.122349, 0.664531, -0.021492, 0.122349, -0.854471, -0.021492, 0.173836, 0.664531, -0.021492, 0.173836, -0.854471, 0.021492, 0.29397, -0.854471, -0.021492, 0.29397, -0.854471, 0.021492, 0.18232, -0.854471, -0.021492, 0.18232, -0.854471, 0.021492, 0.18232, -0.854471, 0.021492, 0.18232, 0.664531, 0.021492, 0.29397, -0.854471, 0.021492, 0.29397, 0.664531, 0.021492, 0.18232, 0.664531, -0.021492, 0.18232, 0.664531, 0.021492, 0.29397, 0.664531, -0.021492, 0.29397, 0.664531, -0.021492, 0.18232, 0.664531, -0.021492, 0.18232, -0.854471, -0.021492, 0.29397, 0.664531, -0.021492, 0.29397, -0.854471, 0.021492, 0.173836, 0.664531, -0.021492, 0.173836, 0.664531, 0.021492, 0.183446, 0.157483, -0.021492, 0.183446, 0.157483, 0.021492, 0.183446, -0.854471, 0.021492, 0.183446, 0.157483, 0.021492, 0.183446, -0.854471, -0.021492, 0.183446, -0.854471, -0.021492, 0.183446, 0.157483, -0.021492, 0.183446, -0.854471 )

[node name="Plank2" type="Spatial"]

[node name="planksplit_lp" type="MeshInstance" parent="."]
transform = Transform( 3, 0, 0, 0, 3, 0, 0, 0, 3, 0, -0.583845, 0.447537 )
mesh = ExtResource( 1 )
material/0 = SubResource( 1 )

[node name="StaticBody" type="StaticBody" parent="planksplit_lp"]

[node name="CollisionShape" type="CollisionShape" parent="planksplit_lp/StaticBody"]
shape = SubResource( 2 )
